[
    {
        "id" : "301",
        "id_categoria" : "1",
        "nombre" : "concentrado de carne",
        "descripcion" : "x",
        "precio" : "2000",
        "activo": true
    },
    {
        "id" : "302",
        "id_categoria" : "1",
        "nombre" : "concentrado de pollo",
        "descripcion" : "x",
        "precio" : "2000",
        "activo": true
    },
    {
        "id" : "303",
        "id_categoria" : "1",
        "nombre" : "concentrado de pescado",
        "descripcion" : "x",
        "precio" : "2000",
        "activo": true
    },
    {
        "id" : "304",
        "id_categoria" : "2",
        "nombre" : "juguete de hueso",
        "descripcion" : "x",
        "precio" : "6000",
        "activo": true
    },
    {
        "id" : "305",
        "id_categoria" : "2",
        "nombre" : "juguete raton",
        "descripcion" : "para gato",
        "precio" : "7000",
        "activo": true
    },
    {
        "id" : "306",
        "id_categoria" : "1",
        "nombre" : "hueso",
        "descripcion" : "x",
        "precio" : "4000",
        "activo": true
    },
    {
        "id" : "307",
        "id_categoria" : "3",
        "nombre" : "collar de gato",
        "descripcion" : "x",
        "precio" : "8000",
        "activo": true
    },
    {
        "id" : "308",
        "id_categoria" : "3",
        "nombre" : "collar de perro",
        "descripcion" : "x",
        "precio" : "12000",
        "activo": true
    },
    {
        "id" : "309",
        "id_categoria" : "3",
        "nombre" : "cadena para perro",
        "descripcion" : "x",
        "precio" : "19000",
        "activo": true
    },
    {
        "id" : "310",
        "id_categoria" : "3",
        "nombre" : "placas",
        "descripcion" : "depende el modelo, desde 1000",
        "precio" : "1000",
        "activo": true
    }
]